{
  "name": "OnetimeReservationInstructors",
  "id": 5,
  "title": "Onetime Reservation Instructors",
  "hidden": false,
  "sealed": false,
  "abstract": false,
  "version": "1.0",
  "fields": [
    {
      "name": "id",
      "title": "Id",
      "description": "The primary key of onetime reservation instructor.",
      "type": "Integer",
      "nullable": false,
      "primary": true,
      "size": 4
    },
    {
      "name": "onetimeReservationId",
      "title": "Onetime Reservation Id",
      "description": "ID of the onetime reservation",
      "type": "OnetimeReservation",
      "expandable": true
    },
    {
      "name": "instructorId",
      "title": "Instructor Id",
      "description": "ID of the instructor",
      "type": "Instructor",
      "expandable": true
    }
  ]
}